/xavier_ssd/build/2020_3_2
/xavier_ssd/build/2020_3_3
/xavier_ssd/build/2020_3_4
/xavier_ssd/build/2020_3_5
/xavier_ssd/build/2020_3_6
/xavier_ssd/build/2020_3_7
/xavier_ssd/build/2020_3_8
/xavier_ssd/build/2020_3_9
/xavier_ssd/build/2020_3_10
/xavier_ssd/build/2020_3_18
/xavier_ssd/build/2020_3_19
/xavier_ssd/build/2020_3_20
/xavier_ssd/build/2020_3_21
/xavier_ssd/build/2020_3_22
/xavier_ssd/build/2020_3_23
/xavier_ssd/build/2020_3_24
/xavier_ssd/build/2020_3_25
/xavier_ssd/build/2020_3_26
/xavier_ssd/build/2020_3_27
/xavier_ssd/build/2020_3_28
/xavier_ssd/build/2020_3_29
/xavier_ssd/build/2020_3_30
/xavier_ssd/build/2020_3_31
/xavier_ssd/build/2020_4_1
/xavier_ssd/build/2020_4_3
/xavier_ssd/build/2020_4_4
/xavier_ssd/build/2020_4_5
/xavier_ssd/build/2020_4_6
/xavier_ssd/build/2020_4_7
/xavier_ssd/build/2020_4_10
/xavier_ssd/build/2020_4_11
/xavier_ssd/build/2020_4_12
/xavier_ssd/build/2020_4_13
/xavier_ssd/build/2020_4_14
/xavier_ssd/build/2020_4_15
/xavier_ssd/build/2020_4_16
/xavier_ssd/build/2020_4_17
/xavier_ssd/build/2020_4_18
/xavier_ssd/build/2020_4_19
/xavier_ssd/build/2020_4_20
/xavier_ssd/build/2020_4_21
/xavier_ssd/build/2020_4_22
/xavier_ssd/build/2020_5_9